c:\slabaugh\teaching\ay2015-16\inm376\template\template\opengltemplate\release\vc140.pdb
c:\slabaugh\teaching\ay2015-16\inm376\template\template\opengltemplate\release\vertexbufferobjectindexed.obj
c:\slabaugh\teaching\ay2015-16\inm376\template\template\opengltemplate\release\vertexbufferobject.obj
c:\slabaugh\teaching\ay2015-16\inm376\template\template\opengltemplate\release\texture.obj
c:\slabaugh\teaching\ay2015-16\inm376\template\template\opengltemplate\release\sphere.obj
c:\slabaugh\teaching\ay2015-16\inm376\template\template\opengltemplate\release\skybox.obj
c:\slabaugh\teaching\ay2015-16\inm376\template\template\opengltemplate\release\shaders.obj
c:\slabaugh\teaching\ay2015-16\inm376\template\template\opengltemplate\release\plane.obj
c:\slabaugh\teaching\ay2015-16\inm376\template\template\opengltemplate\release\openassetimportmesh.obj
c:\slabaugh\teaching\ay2015-16\inm376\template\template\opengltemplate\release\matrixstack.obj
c:\slabaugh\teaching\ay2015-16\inm376\template\template\opengltemplate\release\highresolutiontimer.obj
c:\slabaugh\teaching\ay2015-16\inm376\template\template\opengltemplate\release\gamewindow.obj
c:\slabaugh\teaching\ay2015-16\inm376\template\template\opengltemplate\release\game.obj
c:\slabaugh\teaching\ay2015-16\inm376\template\template\opengltemplate\release\freetypefont.obj
c:\slabaugh\teaching\ay2015-16\inm376\template\template\opengltemplate\release\cubemap.obj
c:\slabaugh\teaching\ay2015-16\inm376\template\template\opengltemplate\release\camera.obj
c:\slabaugh\teaching\ay2015-16\inm376\template\template\opengltemplate\release\audio.obj
c:\slabaugh\teaching\ay2016-17\inm376\template\template\opengltemplate\release\vc140.pdb
c:\slabaugh\teaching\ay2016-17\inm376\template\template\opengltemplate\release\vertexbufferobjectindexed.obj
c:\slabaugh\teaching\ay2016-17\inm376\template\template\opengltemplate\release\vertexbufferobject.obj
c:\slabaugh\teaching\ay2016-17\inm376\template\template\opengltemplate\release\texture.obj
c:\slabaugh\teaching\ay2016-17\inm376\template\template\opengltemplate\release\sphere.obj
c:\slabaugh\teaching\ay2016-17\inm376\template\template\opengltemplate\release\skybox.obj
c:\slabaugh\teaching\ay2016-17\inm376\template\template\opengltemplate\release\shaders.obj
c:\slabaugh\teaching\ay2016-17\inm376\template\template\opengltemplate\release\plane.obj
c:\slabaugh\teaching\ay2016-17\inm376\template\template\opengltemplate\release\openassetimportmesh.obj
c:\slabaugh\teaching\ay2016-17\inm376\template\template\opengltemplate\release\matrixstack.obj
c:\slabaugh\teaching\ay2016-17\inm376\template\template\opengltemplate\release\highresolutiontimer.obj
c:\slabaugh\teaching\ay2016-17\inm376\template\template\opengltemplate\release\gamewindow.obj
c:\slabaugh\teaching\ay2016-17\inm376\template\template\opengltemplate\release\game.obj
c:\slabaugh\teaching\ay2016-17\inm376\template\template\opengltemplate\release\freetypefont.obj
c:\slabaugh\teaching\ay2016-17\inm376\template\template\opengltemplate\release\cubemap.obj
c:\slabaugh\teaching\ay2016-17\inm376\template\template\opengltemplate\release\camera.obj
c:\slabaugh\teaching\ay2016-17\inm376\template\template\opengltemplate\release\audio.obj
p:\city\computer graphics\coursework\cg_project\opengltemplate\release\vc142.pdb
p:\city\computer graphics\coursework\cg_project\opengltemplate\release\vertexbufferobjectindexed.obj
p:\city\computer graphics\coursework\cg_project\opengltemplate\release\vertexbufferobject.obj
p:\city\computer graphics\coursework\cg_project\opengltemplate\release\texture.obj
p:\city\computer graphics\coursework\cg_project\opengltemplate\release\sphere.obj
p:\city\computer graphics\coursework\cg_project\opengltemplate\release\skybox.obj
p:\city\computer graphics\coursework\cg_project\opengltemplate\release\shaders.obj
p:\city\computer graphics\coursework\cg_project\opengltemplate\release\racepost.obj
p:\city\computer graphics\coursework\cg_project\opengltemplate\release\plane.obj
p:\city\computer graphics\coursework\cg_project\opengltemplate\release\matrixstack.obj
p:\city\computer graphics\coursework\cg_project\opengltemplate\release\highresolutiontimer.obj
p:\city\computer graphics\coursework\cg_project\opengltemplate\release\gamewindow.obj
p:\city\computer graphics\coursework\cg_project\opengltemplate\release\cubemap.obj
p:\city\computer graphics\coursework\cg_project\opengltemplate\release\cube.obj
p:\city\computer graphics\coursework\cg_project\opengltemplate\release\camera.obj
p:\city\computer graphics\coursework\cg_project\opengltemplate\release\audio.obj
c:\slabaugh\teaching\ay2015-16\inm376\template\template\release\opengltemplate.exe
c:\slabaugh\teaching\ay2015-16\inm376\template\template\release\opengltemplate.ipdb
c:\slabaugh\teaching\ay2015-16\inm376\template\template\release\opengltemplate.iobj
c:\slabaugh\teaching\ay2015-16\inm376\template\template\release\opengltemplate.pdb
c:\slabaugh\teaching\ay2016-17\inm376\template\template\release\opengltemplate.exe
c:\slabaugh\teaching\ay2016-17\inm376\template\template\release\opengltemplate.ipdb
c:\slabaugh\teaching\ay2016-17\inm376\template\template\release\opengltemplate.iobj
c:\slabaugh\teaching\ay2016-17\inm376\template\template\release\opengltemplate.pdb
p:\city\computer graphics\coursework\cg_coursework\cg_project\opengltemplate\release\audio.obj
p:\city\computer graphics\coursework\cg_coursework\cg_project\opengltemplate\release\camera.obj
p:\city\computer graphics\coursework\cg_coursework\cg_project\opengltemplate\release\cube.obj
p:\city\computer graphics\coursework\cg_coursework\cg_project\opengltemplate\release\cubemap.obj
p:\city\computer graphics\coursework\cg_coursework\cg_project\opengltemplate\release\freetypefont.obj
p:\city\computer graphics\coursework\cg_coursework\cg_project\opengltemplate\release\game.obj
p:\city\computer graphics\coursework\cg_coursework\cg_project\opengltemplate\release\gamewindow.obj
p:\city\computer graphics\coursework\cg_coursework\cg_project\opengltemplate\release\highresolutiontimer.obj
p:\city\computer graphics\coursework\cg_coursework\cg_project\opengltemplate\release\matrixstack.obj
p:\city\computer graphics\coursework\cg_coursework\cg_project\opengltemplate\release\openassetimportmesh.obj
p:\city\computer graphics\coursework\cg_coursework\cg_project\opengltemplate\release\plane.obj
p:\city\computer graphics\coursework\cg_coursework\cg_project\opengltemplate\release\racepost.obj
p:\city\computer graphics\coursework\cg_coursework\cg_project\opengltemplate\release\shaders.obj
p:\city\computer graphics\coursework\cg_coursework\cg_project\opengltemplate\release\skybox.obj
p:\city\computer graphics\coursework\cg_coursework\cg_project\opengltemplate\release\sphere.obj
p:\city\computer graphics\coursework\cg_coursework\cg_project\opengltemplate\release\texture.obj
p:\city\computer graphics\coursework\cg_coursework\cg_project\opengltemplate\release\vertexbufferobject.obj
p:\city\computer graphics\coursework\cg_coursework\cg_project\opengltemplate\release\vertexbufferobjectindexed.obj
p:\city\computer graphics\coursework\cg_coursework\cg_project\opengltemplate\release\vc140.pdb
p:\city\computer graphics\coursework\cg_coursework\cg_project\opengltemplate\release\vc142.pdb
p:\city\computer graphics\coursework\cg_coursework\cg_project\opengltemplate\release\opengltemplate.tlog\cl.command.1.tlog
p:\city\computer graphics\coursework\cg_coursework\cg_project\opengltemplate\release\opengltemplate.tlog\cl.read.1.tlog
p:\city\computer graphics\coursework\cg_coursework\cg_project\opengltemplate\release\opengltemplate.tlog\cl.write.1.tlog
p:\city\computer graphics\coursework\cg_coursework\cg_project\opengltemplate\release\opengltemplate.tlog\link.command.1.tlog
p:\city\computer graphics\coursework\cg_coursework\cg_project\opengltemplate\release\opengltemplate.tlog\link.read.1.tlog
p:\city\computer graphics\coursework\cg_coursework\cg_project\opengltemplate\release\opengltemplate.tlog\link.write.1.tlog
