mtllib RacePost.mtl
o Stand1
v 13.0 00.0 00.0 
v 15.0 00.0 00.0 
v 13.0 30.0 00.0 
v 15.0 30.0 00.0 
v 13.0 00.0 02.0 
v 15.0 00.0 02.0 
v 13.0 30.0 02.0 
v 15.0 30.0 02.0 
vt 00.0 00.0                     
vt 00.0 10.0                     
vt 01.0 00.0                     
vt 01.0 10.0                                         
vn 0.0 1.0 0.0
vn 0.0 0.0 1.0
vn -1.0 0.0 0.0
vn 0.0 -1.0 0.0
vn 1.0 0.0 0.0
vn 0.0 0.0 -1.0
usemtl Stand1_mat
s off
f 1/1/6 3/2/6 2/3/6    
f 2/3/6 3/2/6 4/4/6    
f 2/1/5 4/2/5 6/3/5    
f 6/3/5 4/2/5 8/4/5    
f 6/1/2 8/2/2 5/3/2   
f 5/3/2 8/2/2 7/4/2  
f 5/1/3 7/2/3 1/3/3   
f 1/3/3 7/2/3 3/4/3  
f 3/1/1 7/2/1 4/3/1   
f 4/3/1 7/2/1 8/4/1  
# f 1/1/4 2/2/4 5/3/4   
# f 5/3/4 2/2/4 6/4/4  
o Stand2
v -13.0 00.0 00.0
v -11.0 00.0 00.0
v -13.0 30.0 00.0
v -11.0 30.0 00.0
v -13.0 00.0 02.0
v -11.0 00.0 02.0
v -13.0 30.0 02.0
v -11.0 30.0 02.0
usemtl Stand2_Mat
s off
f 9/1/6 11/2/6 10/3/6    
f 10/3/6 11/2/6 12/4/6    
f 10/1/5 12/2/5 14/3/5    
f 14/3/5 12/2/5 16/4/5    
f 14/1/2 16/2/2 13/3/2   
f 13/3/2 16/2/2 15/4/2  
f 13/1/3 15/2/3 9/3/3   
f 9/3/3 15/2/3 11/4/3  
f 11/1/1 15/2/1 12/3/1   
f 12/3/1 15/2/1 16/4/1  
# f 9/1/4 10/2/4 13/3/4   
# f 13/3/4 10/2/4 14/4/4  
o Top
v -11.0 27.0 00.0 
v 13.0  27.0 00.0 
v -11.0 30.0 00.0 
v 13.0 30.0 00.0 
v -11.0 27.0 02.0 
v  13.0 27.0 02.0 
v -11.0 30.0 02.0 
v  13.0 30.0 02.0 
vt 00.0 00.0                
vt 00.0 01.0                
vt 10.0 00.0                
vt 10.0 01.0  
vt 00.0 00.0                
vt 00.0 10.0                
vt 01.0 00.0                
vt 01.0 10.0               
usemtl Top_Mat
s off
f 17/5/6 19/6/6 18/7/6         
f 18/7/6 19/6/6 20/8/6         
f 18/5/5 20/6/5 22/7/5         
f 22/7/5 20/6/5 24/8/5         
f 22/5/2 24/6/2 21/7/2         
f 21/7/2 24/6/2 23/8/2         
f 21/5/3 23/6/3 17/7/3         
f 17/7/3 23/6/3 19/8/3         
f 19/5/1 23/6/1 20/7/1         
f 20/7/1 23/6/1 24/8/1   
f 17/9/4 18/10/4 21/11/4   
f 21/11/4 18/10/4 22/12/4 
o Flag
v -8.0 20.0 -0.20
v  10.0 20.0 -0.20
v -8.0 42.0 -0.20
v  10.0 42.0 -0.20
vt 01.0 00.0                
vt 00.0 00.0                
vt 01.0 01.0                
vt 00.0 01.0    
usemtl Flag_Mat
s off 
f 26/14/6 25/13/6 28/16/6         
f 28/16/6 25/13/6 27/15/6 
o StartBoard
v -6.0 22.0 -0.30
v  8.0 22.0 -0.30
v -6.0 36.0 -0.30
v  8.0 36.0 -0.30
vt 01.0 00.0                
vt 00.0 00.0                
vt 01.0 01.0                
vt 00.0 01.0    
usemtl StartBoard_Mat
s off 
f 30/14/6 29/13/6 32/16/6         
f 32/16/6 29/13/6 31/15/6 


# f 17/9/4 18/10/4 20/11/4   
# f 20/11/4 18/10/4 21/12/4  

# f 1/1/6 3/2/6 2/3/6     4/4/6
# f 2/5/5 4/4/5 6/6/5     8/7/5
# f 6/8/2 8/9/2 5/10/2    7/11/2
# f 5/8/3 7/9/3 1/10/3    3/11/3
# f 3/8/1 7/9/1 4/10/1    8/11/1
# f 1/8/4 2/9/4 5/10/4    6/11/4

